{
  "project_info": {
    "project_number": "1076742082443",
    "firebase_url": "https://minichat-b44ca.firebaseio.com",
    "project_id": "minichat-b44ca",
    "storage_bucket": "minichat-b44ca.appspot.com"
  },
  "client": [
    {
      "client_info": {
        "mobilesdk_app_id": "1:1076742082443:android:2be872db47b98800",
        "android_client_info": {
          "package_name": "io.gitlab.ggjjack.minichat"
        }
      },
      "oauth_client": [
        {
          "client_id": "1076742082443-um6sdfljl5n7k2sti8ou4a8tvghv3lk9.apps.googleusercontent.com",
          "client_type": 1,
          "android_info": {
            "package_name": "io.gitlab.ggjjack.minichat",
            "certificate_hash": "8befa094b31f58d1eb5b475308833c0a86bfe3ea"
          }
        },
        {
          "client_id": "1076742082443-mt56noj9d3uhjrgg93q9rnmm4u4bj3fh.apps.googleusercontent.com",
          "client_type": 3
        }
      ],
      "api_key": [
        {
          "current_key": "AIzaSyAhnuZCwgMkIRC55o--ifVfLBQT45aeF1o"
        }
      ],
      "services": {
        "analytics_service": {
          "status": 1
        },
        "appinvite_service": {
          "status": 2,
          "other_platform_oauth_client": [
            {
              "client_id": "1076742082443-mt56noj9d3uhjrgg93q9rnmm4u4bj3fh.apps.googleusercontent.com",
              "client_type": 3
            }
          ]
        },
        "ads_service": {
          "status": 2
        }
      }
    }
  ],
  "configuration_version": "1"
}